Unable to find image 'christimperley/genprog:latest' locally
latest: Pulling from christimperley/genprog
81a1823ac769: Pulling fs layer
8fb2d15ba095: Pulling fs layer
8c8e28b1b596: Pulling fs layer
6cca44c54386: Pulling fs layer
eacfc5a69871: Pulling fs layer
f0e2cda89042: Pulling fs layer
431594b2f2c7: Pulling fs layer
238fcca2225c: Pulling fs layer
f0e2cda89042: Waiting
6cca44c54386: Waiting
eacfc5a69871: Waiting
238fcca2225c: Waiting
431594b2f2c7: Waiting
8fb2d15ba095: Download complete
8c8e28b1b596: Download complete
6cca44c54386: Verifying Checksum
6cca44c54386: Download complete
eacfc5a69871: Download complete
431594b2f2c7: Download complete
238fcca2225c: Verifying Checksum
238fcca2225c: Download complete
81a1823ac769: Download complete
f0e2cda89042: Verifying Checksum
f0e2cda89042: Download complete
81a1823ac769: Pull complete
8fb2d15ba095: Pull complete
8c8e28b1b596: Pull complete
6cca44c54386: Pull complete
eacfc5a69871: Pull complete
f0e2cda89042: Pull complete
431594b2f2c7: Pull complete
238fcca2225c: Pull complete
Digest: sha256:cddc220ac9630c35433e414c203c5057e89cd53dd02569329a2cd5dbb2a352ba
Status: Downloaded newer image for christimperley/genprog:latest
Unable to find image 'christimperley/repairbox:siemens-printtokens-one' locally
siemens-printtokens-one: Pulling from christimperley/repairbox
8f229c550c2e: Pulling fs layer
8e1fb71e8df6: Pulling fs layer
f75a34586856: Pulling fs layer
8744e322b832: Pulling fs layer
d5165bfce78f: Pulling fs layer
5f40aa49109c: Pulling fs layer
9787cc326297: Pulling fs layer
e34f25766503: Pulling fs layer
625ad78bb4d1: Pulling fs layer
db7a024fafab: Pulling fs layer
e6236f7dfb5d: Pulling fs layer
16b58a4a80bf: Pulling fs layer
b6ee17c1c165: Pulling fs layer
cf5798b7fcda: Pulling fs layer
9abae4c95999: Pulling fs layer
63d4afdca50f: Pulling fs layer
5a1577103456: Pulling fs layer
84a6354e7437: Pulling fs layer
90956461be7b: Pulling fs layer
18c854f1bc1b: Pulling fs layer
123dae7f4887: Pulling fs layer
ffcb73c140c9: Pulling fs layer
5dbc2d10305c: Pulling fs layer
1a04c1ab964a: Pulling fs layer
24f796a38463: Pulling fs layer
8a8472755fc1: Pulling fs layer
daf9eea0c873: Pulling fs layer
d2fe6278747f: Pulling fs layer
3153f9d29f2f: Pulling fs layer
a8c7b76a7eae: Pulling fs layer
9c037c5c1507: Pulling fs layer
8744e322b832: Waiting
d5165bfce78f: Waiting
5f40aa49109c: Waiting
9787cc326297: Waiting
84a6354e7437: Waiting
e34f25766503: Waiting
625ad78bb4d1: Waiting
90956461be7b: Waiting
db7a024fafab: Waiting
18c854f1bc1b: Waiting
e6236f7dfb5d: Waiting
123dae7f4887: Waiting
16b58a4a80bf: Waiting
ffcb73c140c9: Waiting
b6ee17c1c165: Waiting
5dbc2d10305c: Waiting
cf5798b7fcda: Waiting
1a04c1ab964a: Waiting
9abae4c95999: Waiting
24f796a38463: Waiting
63d4afdca50f: Waiting
8a8472755fc1: Waiting
5a1577103456: Waiting
daf9eea0c873: Waiting
9c037c5c1507: Waiting
a8c7b76a7eae: Waiting
d2fe6278747f: Waiting
f75a34586856: Verifying Checksum
f75a34586856: Download complete
8e1fb71e8df6: Verifying Checksum
8e1fb71e8df6: Download complete
8744e322b832: Verifying Checksum
8744e322b832: Download complete
d5165bfce78f: Verifying Checksum
5f40aa49109c: Download complete
9787cc326297: Verifying Checksum
9787cc326297: Download complete
625ad78bb4d1: Verifying Checksum
625ad78bb4d1: Download complete
db7a024fafab: Verifying Checksum
db7a024fafab: Download complete
e6236f7dfb5d: Verifying Checksum
e6236f7dfb5d: Download complete
16b58a4a80bf: Verifying Checksum
16b58a4a80bf: Download complete
b6ee17c1c165: Verifying Checksum
b6ee17c1c165: Download complete
cf5798b7fcda: Verifying Checksum
cf5798b7fcda: Download complete
9abae4c95999: Verifying Checksum
9abae4c95999: Download complete
63d4afdca50f: Verifying Checksum
63d4afdca50f: Download complete
5a1577103456: Verifying Checksum
5a1577103456: Download complete
84a6354e7437: Verifying Checksum
84a6354e7437: Download complete
90956461be7b: Download complete
8f229c550c2e: Verifying Checksum
8f229c550c2e: Download complete
123dae7f4887: Verifying Checksum
123dae7f4887: Download complete
18c854f1bc1b: Verifying Checksum
18c854f1bc1b: Download complete
ffcb73c140c9: Verifying Checksum
ffcb73c140c9: Download complete
5dbc2d10305c: Verifying Checksum
5dbc2d10305c: Download complete
1a04c1ab964a: Verifying Checksum
1a04c1ab964a: Download complete
8a8472755fc1: Verifying Checksum
8a8472755fc1: Download complete
24f796a38463: Verifying Checksum
24f796a38463: Download complete
daf9eea0c873: Download complete
d2fe6278747f: Download complete
a8c7b76a7eae: Verifying Checksum
a8c7b76a7eae: Download complete
3153f9d29f2f: Download complete
9c037c5c1507: Verifying Checksum
9c037c5c1507: Download complete
e34f25766503: Verifying Checksum
e34f25766503: Download complete
8f229c550c2e: Pull complete
8e1fb71e8df6: Pull complete
f75a34586856: Pull complete
8744e322b832: Pull complete
d5165bfce78f: Pull complete
5f40aa49109c: Pull complete
9787cc326297: Pull complete
e34f25766503: Pull complete
625ad78bb4d1: Pull complete
db7a024fafab: Pull complete
e6236f7dfb5d: Pull complete
16b58a4a80bf: Pull complete
b6ee17c1c165: Pull complete
cf5798b7fcda: Pull complete
9abae4c95999: Pull complete
63d4afdca50f: Pull complete
5a1577103456: Pull complete
84a6354e7437: Pull complete
90956461be7b: Pull complete
18c854f1bc1b: Pull complete
123dae7f4887: Pull complete
ffcb73c140c9: Pull complete
5dbc2d10305c: Pull complete
1a04c1ab964a: Pull complete
24f796a38463: Pull complete
8a8472755fc1: Pull complete
daf9eea0c873: Pull complete
d2fe6278747f: Pull complete
3153f9d29f2f: Pull complete
a8c7b76a7eae: Pull complete
9c037c5c1507: Pull complete
Digest: sha256:3d261b81f1756c2b5179daf709089dd565982fc70906b69746c4473f58de6d9f
Status: Downloaded newer image for christimperley/repairbox:siemens-printtokens-one
print_tokens.c:137: Warning: Return statement without a value in function returning int 
print_tokens.c:140: Warning: Return statement without a value in function returning int 
print_tokens.c:192: Warning: Body of function get_token falls-through. Adding a return statement
print_tokens.c:420: Warning: Return statement without a value in function returning int 
print_tokens.c:440: Warning: Body of function constant falls-through. Adding a return statement
print_tokens.c:563: Warning: Return statement without a value in function returning int 
print_tokens.c:137: Warning: Return statement without a value in function returning int 
print_tokens.c:140: Warning: Return statement without a value in function returning int 
print_tokens.c:192: Warning: Body of function get_token falls-through. Adding a return statement
print_tokens.c:420: Warning: Return statement without a value in function returning int 
print_tokens.c:440: Warning: Body of function constant falls-through. Adding a return statement
print_tokens.c:563: Warning: Return statement without a value in function returning int 
print_tokens.c:137: Warning: Return statement without a value in function returning int 
print_tokens.c:140: Warning: Return statement without a value in function returning int 
print_tokens.c:192: Warning: Body of function get_token falls-through. Adding a return statement
print_tokens.c:420: Warning: Return statement without a value in function returning int 
print_tokens.c:440: Warning: Body of function constant falls-through. Adding a return statement
print_tokens.c:563: Warning: Return statement without a value in function returning int 
print_tokens.c:137: Warning: Return statement without a value in function returning int 
print_tokens.c:140: Warning: Return statement without a value in function returning int 
print_tokens.c:192: Warning: Body of function get_token falls-through. Adding a return statement
print_tokens.c:420: Warning: Return statement without a value in function returning int 
print_tokens.c:440: Warning: Body of function constant falls-through. Adding a return statement
print_tokens.c:563: Warning: Return statement without a value in function returning int 
print_tokens.c:137: Warning: Return statement without a value in function returning int 
print_tokens.c:140: Warning: Return statement without a value in function returning int 
print_tokens.c:192: Warning: Body of function get_token falls-through. Adding a return statement
print_tokens.c:420: Warning: Return statement without a value in function returning int 
print_tokens.c:440: Warning: Body of function constant falls-through. Adding a return statement
print_tokens.c:563: Warning: Return statement without a value in function returning int 
print_tokens.c:137: Warning: Return statement without a value in function returning int 
print_tokens.c:140: Warning: Return statement without a value in function returning int 
print_tokens.c:192: Warning: Body of function get_token falls-through. Adding a return statement
print_tokens.c:420: Warning: Return statement without a value in function returning int 
print_tokens.c:440: Warning: Body of function constant falls-through. Adding a return statement
print_tokens.c:563: Warning: Return statement without a value in function returning int 
print_tokens.c:137: Warning: Return statement without a value in function returning int 
print_tokens.c:140: Warning: Return statement without a value in function returning int 
print_tokens.c:192: Warning: Body of function get_token falls-through. Adding a return statement
print_tokens.c:420: Warning: Return statement without a value in function returning int 
print_tokens.c:440: Warning: Body of function constant falls-through. Adding a return statement
print_tokens.c:563: Warning: Return statement without a value in function returning int 
print_tokens.c:137: Warning: Return statement without a value in function returning int 
print_tokens.c:140: Warning: Return statement without a value in function returning int 
print_tokens.c:192: Warning: Body of function get_token falls-through. Adding a return statement
print_tokens.c:420: Warning: Return statement without a value in function returning int 
print_tokens.c:440: Warning: Body of function constant falls-through. Adding a return statement
print_tokens.c:563: Warning: Return statement without a value in function returning int 
print_tokens.c:137: Warning: Return statement without a value in function returning int 
print_tokens.c:140: Warning: Return statement without a value in function returning int 
print_tokens.c:192: Warning: Body of function get_token falls-through. Adding a return statement
print_tokens.c:420: Warning: Return statement without a value in function returning int 
print_tokens.c:440: Warning: Body of function constant falls-through. Adding a return statement
print_tokens.c:563: Warning: Return statement without a value in function returning int 
print_tokens.c:137: Warning: Return statement without a value in function returning int 
print_tokens.c:140: Warning: Return statement without a value in function returning int 
print_tokens.c:192: Warning: Body of function get_token falls-through. Adding a return statement
print_tokens.c:420: Warning: Return statement without a value in function returning int 
print_tokens.c:440: Warning: Body of function constant falls-through. Adding a return statement
print_tokens.c:563: Warning: Return statement without a value in function returning int 
print_tokens.c:137: Warning: Return statement without a value in function returning int 
print_tokens.c:140: Warning: Return statement without a value in function returning int 
print_tokens.c:192: Warning: Body of function get_token falls-through. Adding a return statement
print_tokens.c:420: Warning: Return statement without a value in function returning int 
print_tokens.c:440: Warning: Body of function constant falls-through. Adding a return statement
print_tokens.c:563: Warning: Return statement without a value in function returning int 
print_tokens.c:137: Warning: Return statement without a value in function returning int 
print_tokens.c:140: Warning: Return statement without a value in function returning int 
print_tokens.c:192: Warning: Body of function get_token falls-through. Adding a return statement
print_tokens.c:420: Warning: Return statement without a value in function returning int 
print_tokens.c:440: Warning: Body of function constant falls-through. Adding a return statement
print_tokens.c:563: Warning: Return statement without a value in function returning int 
print_tokens.c:137: Warning: Return statement without a value in function returning int 
print_tokens.c:140: Warning: Return statement without a value in function returning int 
print_tokens.c:192: Warning: Body of function get_token falls-through. Adding a return statement
print_tokens.c:420: Warning: Return statement without a value in function returning int 
print_tokens.c:440: Warning: Body of function constant falls-through. Adding a return statement
print_tokens.c:563: Warning: Return statement without a value in function returning int 
print_tokens.c:137: Warning: Return statement without a value in function returning int 
print_tokens.c:140: Warning: Return statement without a value in function returning int 
print_tokens.c:192: Warning: Body of function get_token falls-through. Adding a return statement
print_tokens.c:420: Warning: Return statement without a value in function returning int 
print_tokens.c:440: Warning: Body of function constant falls-through. Adding a return statement
print_tokens.c:563: Warning: Return statement without a value in function returning int 
print_tokens.c:137: Warning: Return statement without a value in function returning int 
print_tokens.c:140: Warning: Return statement without a value in function returning int 
print_tokens.c:192: Warning: Body of function get_token falls-through. Adding a return statement
print_tokens.c:420: Warning: Return statement without a value in function returning int 
print_tokens.c:440: Warning: Body of function constant falls-through. Adding a return statement
print_tokens.c:563: Warning: Return statement without a value in function returning int 
print_tokens.c:137: Warning: Return statement without a value in function returning int 
print_tokens.c:140: Warning: Return statement without a value in function returning int 
print_tokens.c:192: Warning: Body of function get_token falls-through. Adding a return statement
print_tokens.c:420: Warning: Return statement without a value in function returning int 
print_tokens.c:440: Warning: Body of function constant falls-through. Adding a return statement
print_tokens.c:563: Warning: Return statement without a value in function returning int 
print_tokens.c:137: Warning: Return statement without a value in function returning int 
print_tokens.c:140: Warning: Return statement without a value in function returning int 
print_tokens.c:192: Warning: Body of function get_token falls-through. Adding a return statement
print_tokens.c:420: Warning: Return statement without a value in function returning int 
print_tokens.c:440: Warning: Body of function constant falls-through. Adding a return statement
print_tokens.c:563: Warning: Return statement without a value in function returning int 
print_tokens.c:137: Warning: Return statement without a value in function returning int 
print_tokens.c:140: Warning: Return statement without a value in function returning int 
print_tokens.c:192: Warning: Body of function get_token falls-through. Adding a return statement
print_tokens.c:420: Warning: Return statement without a value in function returning int 
print_tokens.c:440: Warning: Body of function constant falls-through. Adding a return statement
print_tokens.c:563: Warning: Return statement without a value in function returning int 
print_tokens.c:137: Warning: Return statement without a value in function returning int 
print_tokens.c:140: Warning: Return statement without a value in function returning int 
print_tokens.c:192: Warning: Body of function get_token falls-through. Adding a return statement
print_tokens.c:420: Warning: Return statement without a value in function returning int 
print_tokens.c:440: Warning: Body of function constant falls-through. Adding a return statement
print_tokens.c:563: Warning: Return statement without a value in function returning int 
print_tokens.c:137: Warning: Return statement without a value in function returning int 
print_tokens.c:140: Warning: Return statement without a value in function returning int 
print_tokens.c:192: Warning: Body of function get_token falls-through. Adding a return statement
print_tokens.c:420: Warning: Return statement without a value in function returning int 
print_tokens.c:440: Warning: Body of function constant falls-through. Adding a return statement
print_tokens.c:563: Warning: Return statement without a value in function returning int 
print_tokens.c:137: Warning: Return statement without a value in function returning int 
print_tokens.c:140: Warning: Return statement without a value in function returning int 
print_tokens.c:192: Warning: Body of function get_token falls-through. Adding a return statement
print_tokens.c:420: Warning: Return statement without a value in function returning int 
print_tokens.c:440: Warning: Body of function constant falls-through. Adding a return statement
print_tokens.c:563: Warning: Return statement without a value in function returning int 
print_tokens.c:137: Warning: Return statement without a value in function returning int 
print_tokens.c:140: Warning: Return statement without a value in function returning int 
print_tokens.c:192: Warning: Body of function get_token falls-through. Adding a return statement
print_tokens.c:420: Warning: Return statement without a value in function returning int 
print_tokens.c:440: Warning: Body of function constant falls-through. Adding a return statement
print_tokens.c:563: Warning: Return statement without a value in function returning int 
print_tokens.c:137: Warning: Return statement without a value in function returning int 
print_tokens.c:140: Warning: Return statement without a value in function returning int 
print_tokens.c:192: Warning: Body of function get_token falls-through. Adding a return statement
print_tokens.c:420: Warning: Return statement without a value in function returning int 
print_tokens.c:440: Warning: Body of function constant falls-through. Adding a return statement
print_tokens.c:563: Warning: Return statement without a value in function returning int 
print_tokens.c:137: Warning: Return statement without a value in function returning int 
print_tokens.c:140: Warning: Return statement without a value in function returning int 
print_tokens.c:192: Warning: Body of function get_token falls-through. Adding a return statement
print_tokens.c:420: Warning: Return statement without a value in function returning int 
print_tokens.c:440: Warning: Body of function constant falls-through. Adding a return statement
print_tokens.c:563: Warning: Return statement without a value in function returning int 
print_tokens.c:137: Warning: Return statement without a value in function returning int 
print_tokens.c:140: Warning: Return statement without a value in function returning int 
print_tokens.c:192: Warning: Body of function get_token falls-through. Adding a return statement
print_tokens.c:420: Warning: Return statement without a value in function returning int 
print_tokens.c:440: Warning: Body of function constant falls-through. Adding a return statement
print_tokens.c:563: Warning: Return statement without a value in function returning int 
print_tokens.c:137: Warning: Return statement without a value in function returning int 
print_tokens.c:140: Warning: Return statement without a value in function returning int 
print_tokens.c:192: Warning: Body of function get_token falls-through. Adding a return statement
print_tokens.c:420: Warning: Return statement without a value in function returning int 
print_tokens.c:440: Warning: Body of function constant falls-through. Adding a return statement
print_tokens.c:563: Warning: Return statement without a value in function returning int 
print_tokens.c:137: Warning: Return statement without a value in function returning int 
print_tokens.c:140: Warning: Return statement without a value in function returning int 
print_tokens.c:192: Warning: Body of function get_token falls-through. Adding a return statement
print_tokens.c:420: Warning: Return statement without a value in function returning int 
print_tokens.c:440: Warning: Body of function constant falls-through. Adding a return statement
print_tokens.c:563: Warning: Return statement without a value in function returning int 
print_tokens.c:137: Warning: Return statement without a value in function returning int 
print_tokens.c:140: Warning: Return statement without a value in function returning int 
print_tokens.c:192: Warning: Body of function get_token falls-through. Adding a return statement
print_tokens.c:420: Warning: Return statement without a value in function returning int 
print_tokens.c:440: Warning: Body of function constant falls-through. Adding a return statement
print_tokens.c:563: Warning: Return statement without a value in function returning int 
print_tokens.c:137: Warning: Return statement without a value in function returning int 
print_tokens.c:140: Warning: Return statement without a value in function returning int 
print_tokens.c:192: Warning: Body of function get_token falls-through. Adding a return statement
print_tokens.c:420: Warning: Return statement without a value in function returning int 
print_tokens.c:440: Warning: Body of function constant falls-through. Adding a return statement
print_tokens.c:563: Warning: Return statement without a value in function returning int 
print_tokens.c:137: Warning: Return statement without a value in function returning int 
print_tokens.c:140: Warning: Return statement without a value in function returning int 
print_tokens.c:192: Warning: Body of function get_token falls-through. Adding a return statement
print_tokens.c:420: Warning: Return statement without a value in function returning int 
print_tokens.c:440: Warning: Body of function constant falls-through. Adding a return statement
print_tokens.c:563: Warning: Return statement without a value in function returning int 
print_tokens.c:137: Warning: Return statement without a value in function returning int 
print_tokens.c:140: Warning: Return statement without a value in function returning int 
print_tokens.c:192: Warning: Body of function get_token falls-through. Adding a return statement
print_tokens.c:420: Warning: Return statement without a value in function returning int 
print_tokens.c:440: Warning: Body of function constant falls-through. Adding a return statement
print_tokens.c:563: Warning: Return statement without a value in function returning int 
print_tokens.c:137: Warning: Return statement without a value in function returning int 
print_tokens.c:140: Warning: Return statement without a value in function returning int 
print_tokens.c:192: Warning: Body of function get_token falls-through. Adding a return statement
print_tokens.c:420: Warning: Return statement without a value in function returning int 
print_tokens.c:440: Warning: Body of function constant falls-through. Adding a return statement
print_tokens.c:563: Warning: Return statement without a value in function returning int 
print_tokens.c:137: Warning: Return statement without a value in function returning int 
print_tokens.c:140: Warning: Return statement without a value in function returning int 
print_tokens.c:192: Warning: Body of function get_token falls-through. Adding a return statement
print_tokens.c:420: Warning: Return statement without a value in function returning int 
print_tokens.c:440: Warning: Body of function constant falls-through. Adding a return statement
print_tokens.c:563: Warning: Return statement without a value in function returning int 
print_tokens.c:137: Warning: Return statement without a value in function returning int 
print_tokens.c:140: Warning: Return statement without a value in function returning int 
print_tokens.c:192: Warning: Body of function get_token falls-through. Adding a return statement
print_tokens.c:420: Warning: Return statement without a value in function returning int 
print_tokens.c:440: Warning: Body of function constant falls-through. Adding a return statement
print_tokens.c:563: Warning: Return statement without a value in function returning int 
print_tokens.c:137: Warning: Return statement without a value in function returning int 
print_tokens.c:140: Warning: Return statement without a value in function returning int 
print_tokens.c:192: Warning: Body of function get_token falls-through. Adding a return statement
print_tokens.c:420: Warning: Return statement without a value in function returning int 
print_tokens.c:440: Warning: Body of function constant falls-through. Adding a return statement
print_tokens.c:563: Warning: Return statement without a value in function returning int 
print_tokens.c:137: Warning: Return statement without a value in function returning int 
print_tokens.c:140: Warning: Return statement without a value in function returning int 
print_tokens.c:192: Warning: Body of function get_token falls-through. Adding a return statement
print_tokens.c:420: Warning: Return statement without a value in function returning int 
print_tokens.c:440: Warning: Body of function constant falls-through. Adding a return statement
print_tokens.c:563: Warning: Return statement without a value in function returning int 
print_tokens.c:137: Warning: Return statement without a value in function returning int 
print_tokens.c:140: Warning: Return statement without a value in function returning int 
print_tokens.c:192: Warning: Body of function get_token falls-through. Adding a return statement
print_tokens.c:420: Warning: Return statement without a value in function returning int 
print_tokens.c:440: Warning: Body of function constant falls-through. Adding a return statement
print_tokens.c:563: Warning: Return statement without a value in function returning int 
print_tokens.c:137: Warning: Return statement without a value in function returning int 
print_tokens.c:140: Warning: Return statement without a value in function returning int 
print_tokens.c:192: Warning: Body of function get_token falls-through. Adding a return statement
print_tokens.c:420: Warning: Return statement without a value in function returning int 
print_tokens.c:440: Warning: Body of function constant falls-through. Adding a return statement
print_tokens.c:563: Warning: Return statement without a value in function returning int 
print_tokens.c:137: Warning: Return statement without a value in function returning int 
print_tokens.c:140: Warning: Return statement without a value in function returning int 
print_tokens.c:192: Warning: Body of function get_token falls-through. Adding a return statement
print_tokens.c:420: Warning: Return statement without a value in function returning int 
print_tokens.c:440: Warning: Body of function constant falls-through. Adding a return statement
print_tokens.c:563: Warning: Return statement without a value in function returning int 
print_tokens.c:137: Warning: Return statement without a value in function returning int 
print_tokens.c:140: Warning: Return statement without a value in function returning int 
print_tokens.c:192: Warning: Body of function get_token falls-through. Adding a return statement
print_tokens.c:420: Warning: Return statement without a value in function returning int 
print_tokens.c:440: Warning: Body of function constant falls-through. Adding a return statement
print_tokens.c:563: Warning: Return statement without a value in function returning int 
print_tokens.c:137: Warning: Return statement without a value in function returning int 
print_tokens.c:140: Warning: Return statement without a value in function returning int 
print_tokens.c:192: Warning: Body of function get_token falls-through. Adding a return statement
print_tokens.c:420: Warning: Return statement without a value in function returning int 
print_tokens.c:440: Warning: Body of function constant falls-through. Adding a return statement
print_tokens.c:563: Warning: Return statement without a value in function returning int 
print_tokens.c:137: Warning: Return statement without a value in function returning int 
print_tokens.c:140: Warning: Return statement without a value in function returning int 
print_tokens.c:192: Warning: Body of function get_token falls-through. Adding a return statement
print_tokens.c:420: Warning: Return statement without a value in function returning int 
print_tokens.c:440: Warning: Body of function constant falls-through. Adding a return statement
print_tokens.c:563: Warning: Return statement without a value in function returning int 
print_tokens.c:137: Warning: Return statement without a value in function returning int 
print_tokens.c:140: Warning: Return statement without a value in function returning int 
print_tokens.c:192: Warning: Body of function get_token falls-through. Adding a return statement
print_tokens.c:420: Warning: Return statement without a value in function returning int 
print_tokens.c:440: Warning: Body of function constant falls-through. Adding a return statement
print_tokens.c:563: Warning: Return statement without a value in function returning int 
print_tokens.c:137: Warning: Return statement without a value in function returning int 
print_tokens.c:140: Warning: Return statement without a value in function returning int 
print_tokens.c:192: Warning: Body of function get_token falls-through. Adding a return statement
print_tokens.c:420: Warning: Return statement without a value in function returning int 
print_tokens.c:440: Warning: Body of function constant falls-through. Adding a return statement
print_tokens.c:563: Warning: Return statement without a value in function returning int 
print_tokens.c:137: Warning: Return statement without a value in function returning int 
print_tokens.c:140: Warning: Return statement without a value in function returning int 
print_tokens.c:192: Warning: Body of function get_token falls-through. Adding a return statement
print_tokens.c:420: Warning: Return statement without a value in function returning int 
print_tokens.c:440: Warning: Body of function constant falls-through. Adding a return statement
print_tokens.c:563: Warning: Return statement without a value in function returning int 
print_tokens.c:137: Warning: Return statement without a value in function returning int 
print_tokens.c:140: Warning: Return statement without a value in function returning int 
print_tokens.c:192: Warning: Body of function get_token falls-through. Adding a return statement
print_tokens.c:420: Warning: Return statement without a value in function returning int 
print_tokens.c:440: Warning: Body of function constant falls-through. Adding a return statement
print_tokens.c:563: Warning: Return statement without a value in function returning int 
print_tokens.c:137: Warning: Return statement without a value in function returning int 
print_tokens.c:140: Warning: Return statement without a value in function returning int 
print_tokens.c:192: Warning: Body of function get_token falls-through. Adding a return statement
print_tokens.c:420: Warning: Return statement without a value in function returning int 
print_tokens.c:440: Warning: Body of function constant falls-through. Adding a return statement
print_tokens.c:563: Warning: Return statement without a value in function returning int 
print_tokens.c:137: Warning: Return statement without a value in function returning int 
print_tokens.c:140: Warning: Return statement without a value in function returning int 
print_tokens.c:192: Warning: Body of function get_token falls-through. Adding a return statement
print_tokens.c:420: Warning: Return statement without a value in function returning int 
print_tokens.c:440: Warning: Body of function constant falls-through. Adding a return statement
print_tokens.c:563: Warning: Return statement without a value in function returning int 
print_tokens.c:137: Warning: Return statement without a value in function returning int 
print_tokens.c:140: Warning: Return statement without a value in function returning int 
print_tokens.c:192: Warning: Body of function get_token falls-through. Adding a return statement
print_tokens.c:420: Warning: Return statement without a value in function returning int 
print_tokens.c:440: Warning: Body of function constant falls-through. Adding a return statement
print_tokens.c:563: Warning: Return statement without a value in function returning int 
print_tokens.c:137: Warning: Return statement without a value in function returning int 
print_tokens.c:140: Warning: Return statement without a value in function returning int 
print_tokens.c:192: Warning: Body of function get_token falls-through. Adding a return statement
print_tokens.c:420: Warning: Return statement without a value in function returning int 
print_tokens.c:440: Warning: Body of function constant falls-through. Adding a return statement
print_tokens.c:563: Warning: Return statement without a value in function returning int 
print_tokens.c:137: Warning: Return statement without a value in function returning int 
print_tokens.c:140: Warning: Return statement without a value in function returning int 
print_tokens.c:192: Warning: Body of function get_token falls-through. Adding a return statement
print_tokens.c:420: Warning: Return statement without a value in function returning int 
print_tokens.c:440: Warning: Body of function constant falls-through. Adding a return statement
print_tokens.c:563: Warning: Return statement without a value in function returning int 
print_tokens.c:137: Warning: Return statement without a value in function returning int 
print_tokens.c:140: Warning: Return statement without a value in function returning int 
print_tokens.c:192: Warning: Body of function get_token falls-through. Adding a return statement
print_tokens.c:420: Warning: Return statement without a value in function returning int 
print_tokens.c:440: Warning: Body of function constant falls-through. Adding a return statement
print_tokens.c:563: Warning: Return statement without a value in function returning int 
print_tokens.c:137: Warning: Return statement without a value in function returning int 
print_tokens.c:140: Warning: Return statement without a value in function returning int 
print_tokens.c:192: Warning: Body of function get_token falls-through. Adding a return statement
print_tokens.c:420: Warning: Return statement without a value in function returning int 
print_tokens.c:440: Warning: Body of function constant falls-through. Adding a return statement
print_tokens.c:563: Warning: Return statement without a value in function returning int 
print_tokens.c:137: Warning: Return statement without a value in function returning int 
print_tokens.c:140: Warning: Return statement without a value in function returning int 
print_tokens.c:192: Warning: Body of function get_token falls-through. Adding a return statement
print_tokens.c:420: Warning: Return statement without a value in function returning int 
print_tokens.c:440: Warning: Body of function constant falls-through. Adding a return statement
print_tokens.c:563: Warning: Return statement without a value in function returning int 
print_tokens.c:137: Warning: Return statement without a value in function returning int 
print_tokens.c:140: Warning: Return statement without a value in function returning int 
print_tokens.c:192: Warning: Body of function get_token falls-through. Adding a return statement
print_tokens.c:420: Warning: Return statement without a value in function returning int 
print_tokens.c:440: Warning: Body of function constant falls-through. Adding a return statement
print_tokens.c:563: Warning: Return statement without a value in function returning int 
print_tokens.c:137: Warning: Return statement without a value in function returning int 
print_tokens.c:140: Warning: Return statement without a value in function returning int 
print_tokens.c:192: Warning: Body of function get_token falls-through. Adding a return statement
print_tokens.c:420: Warning: Return statement without a value in function returning int 
print_tokens.c:440: Warning: Body of function constant falls-through. Adding a return statement
print_tokens.c:563: Warning: Return statement without a value in function returning int 
print_tokens.c:137: Warning: Return statement without a value in function returning int 
print_tokens.c:140: Warning: Return statement without a value in function returning int 
print_tokens.c:192: Warning: Body of function get_token falls-through. Adding a return statement
print_tokens.c:420: Warning: Return statement without a value in function returning int 
print_tokens.c:440: Warning: Body of function constant falls-through. Adding a return statement
print_tokens.c:563: Warning: Return statement without a value in function returning int 
print_tokens.c:137: Warning: Return statement without a value in function returning int 
print_tokens.c:140: Warning: Return statement without a value in function returning int 
print_tokens.c:192: Warning: Body of function get_token falls-through. Adding a return statement
print_tokens.c:420: Warning: Return statement without a value in function returning int 
print_tokens.c:440: Warning: Body of function constant falls-through. Adding a return statement
print_tokens.c:563: Warning: Return statement without a value in function returning int 
print_tokens.c:137: Warning: Return statement without a value in function returning int 
print_tokens.c:140: Warning: Return statement without a value in function returning int 
print_tokens.c:192: Warning: Body of function get_token falls-through. Adding a return statement
print_tokens.c:420: Warning: Return statement without a value in function returning int 
print_tokens.c:440: Warning: Body of function constant falls-through. Adding a return statement
print_tokens.c:563: Warning: Return statement without a value in function returning int 
print_tokens.c:137: Warning: Return statement without a value in function returning int 
print_tokens.c:140: Warning: Return statement without a value in function returning int 
print_tokens.c:192: Warning: Body of function get_token falls-through. Adding a return statement
print_tokens.c:420: Warning: Return statement without a value in function returning int 
print_tokens.c:440: Warning: Body of function constant falls-through. Adding a return statement
print_tokens.c:563: Warning: Return statement without a value in function returning int 
