Error response from daemon: Conflict. The container name "/genprog" is already in use by container "35a4b0d83470cf5ba56b158107db587bd191dbd6d1f05e1f85eeb3da7abc1656". You have to remove (or rename) that container to be able to reuse that name.
print_tokens.c:136: Warning: Return statement without a value in function returning int 
print_tokens.c:139: Warning: Return statement without a value in function returning int 
print_tokens.c:191: Warning: Body of function get_token falls-through. Adding a return statement
print_tokens.c:419: Warning: Return statement without a value in function returning int 
print_tokens.c:439: Warning: Body of function constant falls-through. Adding a return statement
print_tokens.c:572: Warning: Return statement without a value in function returning int 
Fatal error: exception Failure("Failed to build executable for original program (sanity).\n")
print_tokens.c:136: Warning: Return statement without a value in function returning int 
print_tokens.c:139: Warning: Return statement without a value in function returning int 
print_tokens.c:191: Warning: Body of function get_token falls-through. Adding a return statement
print_tokens.c:419: Warning: Return statement without a value in function returning int 
print_tokens.c:439: Warning: Body of function constant falls-through. Adding a return statement
print_tokens.c:572: Warning: Return statement without a value in function returning int 
print_tokens.c:136: Warning: Return statement without a value in function returning int 
print_tokens.c:139: Warning: Return statement without a value in function returning int 
print_tokens.c:191: Warning: Body of function get_token falls-through. Adding a return statement
print_tokens.c:419: Warning: Return statement without a value in function returning int 
print_tokens.c:439: Warning: Body of function constant falls-through. Adding a return statement
print_tokens.c:572: Warning: Return statement without a value in function returning int 
print_tokens.c:136: Warning: Return statement without a value in function returning int 
print_tokens.c:139: Warning: Return statement without a value in function returning int 
print_tokens.c:191: Warning: Body of function get_token falls-through. Adding a return statement
print_tokens.c:419: Warning: Return statement without a value in function returning int 
print_tokens.c:439: Warning: Body of function constant falls-through. Adding a return statement
print_tokens.c:572: Warning: Return statement without a value in function returning int 
print_tokens.c:136: Warning: Return statement without a value in function returning int 
print_tokens.c:139: Warning: Return statement without a value in function returning int 
print_tokens.c:191: Warning: Body of function get_token falls-through. Adding a return statement
print_tokens.c:419: Warning: Return statement without a value in function returning int 
print_tokens.c:439: Warning: Body of function constant falls-through. Adding a return statement
print_tokens.c:572: Warning: Return statement without a value in function returning int 
print_tokens.c:136: Warning: Return statement without a value in function returning int 
print_tokens.c:139: Warning: Return statement without a value in function returning int 
print_tokens.c:191: Warning: Body of function get_token falls-through. Adding a return statement
print_tokens.c:419: Warning: Return statement without a value in function returning int 
print_tokens.c:439: Warning: Body of function constant falls-through. Adding a return statement
print_tokens.c:572: Warning: Return statement without a value in function returning int 
print_tokens.c:136: Warning: Return statement without a value in function returning int 
print_tokens.c:139: Warning: Return statement without a value in function returning int 
print_tokens.c:191: Warning: Body of function get_token falls-through. Adding a return statement
print_tokens.c:419: Warning: Return statement without a value in function returning int 
print_tokens.c:439: Warning: Body of function constant falls-through. Adding a return statement
print_tokens.c:572: Warning: Return statement without a value in function returning int 
print_tokens.c:136: Warning: Return statement without a value in function returning int 
print_tokens.c:139: Warning: Return statement without a value in function returning int 
print_tokens.c:191: Warning: Body of function get_token falls-through. Adding a return statement
print_tokens.c:419: Warning: Return statement without a value in function returning int 
print_tokens.c:439: Warning: Body of function constant falls-through. Adding a return statement
print_tokens.c:572: Warning: Return statement without a value in function returning int 
print_tokens.c:136: Warning: Return statement without a value in function returning int 
print_tokens.c:139: Warning: Return statement without a value in function returning int 
print_tokens.c:191: Warning: Body of function get_token falls-through. Adding a return statement
print_tokens.c:419: Warning: Return statement without a value in function returning int 
print_tokens.c:439: Warning: Body of function constant falls-through. Adding a return statement
print_tokens.c:572: Warning: Return statement without a value in function returning int 
print_tokens.c:136: Warning: Return statement without a value in function returning int 
print_tokens.c:139: Warning: Return statement without a value in function returning int 
print_tokens.c:191: Warning: Body of function get_token falls-through. Adding a return statement
print_tokens.c:419: Warning: Return statement without a value in function returning int 
print_tokens.c:439: Warning: Body of function constant falls-through. Adding a return statement
print_tokens.c:572: Warning: Return statement without a value in function returning int 
print_tokens.c:136: Warning: Return statement without a value in function returning int 
print_tokens.c:139: Warning: Return statement without a value in function returning int 
print_tokens.c:191: Warning: Body of function get_token falls-through. Adding a return statement
print_tokens.c:419: Warning: Return statement without a value in function returning int 
print_tokens.c:439: Warning: Body of function constant falls-through. Adding a return statement
print_tokens.c:572: Warning: Return statement without a value in function returning int 
print_tokens.c:136: Warning: Return statement without a value in function returning int 
print_tokens.c:139: Warning: Return statement without a value in function returning int 
print_tokens.c:191: Warning: Body of function get_token falls-through. Adding a return statement
print_tokens.c:419: Warning: Return statement without a value in function returning int 
print_tokens.c:439: Warning: Body of function constant falls-through. Adding a return statement
print_tokens.c:572: Warning: Return statement without a value in function returning int 
print_tokens.c:136: Warning: Return statement without a value in function returning int 
print_tokens.c:139: Warning: Return statement without a value in function returning int 
print_tokens.c:191: Warning: Body of function get_token falls-through. Adding a return statement
print_tokens.c:419: Warning: Return statement without a value in function returning int 
print_tokens.c:439: Warning: Body of function constant falls-through. Adding a return statement
print_tokens.c:572: Warning: Return statement without a value in function returning int 
print_tokens.c:136: Warning: Return statement without a value in function returning int 
print_tokens.c:139: Warning: Return statement without a value in function returning int 
print_tokens.c:191: Warning: Body of function get_token falls-through. Adding a return statement
print_tokens.c:419: Warning: Return statement without a value in function returning int 
print_tokens.c:439: Warning: Body of function constant falls-through. Adding a return statement
print_tokens.c:572: Warning: Return statement without a value in function returning int 
print_tokens.c:136: Warning: Return statement without a value in function returning int 
print_tokens.c:139: Warning: Return statement without a value in function returning int 
print_tokens.c:191: Warning: Body of function get_token falls-through. Adding a return statement
print_tokens.c:419: Warning: Return statement without a value in function returning int 
print_tokens.c:439: Warning: Body of function constant falls-through. Adding a return statement
print_tokens.c:572: Warning: Return statement without a value in function returning int 
print_tokens.c:136: Warning: Return statement without a value in function returning int 
print_tokens.c:139: Warning: Return statement without a value in function returning int 
print_tokens.c:191: Warning: Body of function get_token falls-through. Adding a return statement
print_tokens.c:419: Warning: Return statement without a value in function returning int 
print_tokens.c:439: Warning: Body of function constant falls-through. Adding a return statement
print_tokens.c:572: Warning: Return statement without a value in function returning int 
print_tokens.c:136: Warning: Return statement without a value in function returning int 
print_tokens.c:139: Warning: Return statement without a value in function returning int 
print_tokens.c:191: Warning: Body of function get_token falls-through. Adding a return statement
print_tokens.c:419: Warning: Return statement without a value in function returning int 
print_tokens.c:439: Warning: Body of function constant falls-through. Adding a return statement
print_tokens.c:572: Warning: Return statement without a value in function returning int 
print_tokens.c:136: Warning: Return statement without a value in function returning int 
print_tokens.c:139: Warning: Return statement without a value in function returning int 
print_tokens.c:191: Warning: Body of function get_token falls-through. Adding a return statement
print_tokens.c:419: Warning: Return statement without a value in function returning int 
print_tokens.c:439: Warning: Body of function constant falls-through. Adding a return statement
print_tokens.c:572: Warning: Return statement without a value in function returning int 
print_tokens.c:136: Warning: Return statement without a value in function returning int 
print_tokens.c:139: Warning: Return statement without a value in function returning int 
print_tokens.c:191: Warning: Body of function get_token falls-through. Adding a return statement
print_tokens.c:419: Warning: Return statement without a value in function returning int 
print_tokens.c:439: Warning: Body of function constant falls-through. Adding a return statement
print_tokens.c:572: Warning: Return statement without a value in function returning int 
print_tokens.c:136: Warning: Return statement without a value in function returning int 
print_tokens.c:139: Warning: Return statement without a value in function returning int 
print_tokens.c:191: Warning: Body of function get_token falls-through. Adding a return statement
print_tokens.c:419: Warning: Return statement without a value in function returning int 
print_tokens.c:439: Warning: Body of function constant falls-through. Adding a return statement
print_tokens.c:572: Warning: Return statement without a value in function returning int 
print_tokens.c:136: Warning: Return statement without a value in function returning int 
print_tokens.c:139: Warning: Return statement without a value in function returning int 
print_tokens.c:191: Warning: Body of function get_token falls-through. Adding a return statement
print_tokens.c:419: Warning: Return statement without a value in function returning int 
print_tokens.c:439: Warning: Body of function constant falls-through. Adding a return statement
print_tokens.c:572: Warning: Return statement without a value in function returning int 
print_tokens.c:136: Warning: Return statement without a value in function returning int 
print_tokens.c:139: Warning: Return statement without a value in function returning int 
print_tokens.c:191: Warning: Body of function get_token falls-through. Adding a return statement
print_tokens.c:419: Warning: Return statement without a value in function returning int 
print_tokens.c:439: Warning: Body of function constant falls-through. Adding a return statement
print_tokens.c:572: Warning: Return statement without a value in function returning int 
print_tokens.c:136: Warning: Return statement without a value in function returning int 
print_tokens.c:139: Warning: Return statement without a value in function returning int 
print_tokens.c:191: Warning: Body of function get_token falls-through. Adding a return statement
print_tokens.c:419: Warning: Return statement without a value in function returning int 
print_tokens.c:439: Warning: Body of function constant falls-through. Adding a return statement
print_tokens.c:572: Warning: Return statement without a value in function returning int 
print_tokens.c:136: Warning: Return statement without a value in function returning int 
print_tokens.c:139: Warning: Return statement without a value in function returning int 
print_tokens.c:191: Warning: Body of function get_token falls-through. Adding a return statement
print_tokens.c:419: Warning: Return statement without a value in function returning int 
print_tokens.c:439: Warning: Body of function constant falls-through. Adding a return statement
print_tokens.c:572: Warning: Return statement without a value in function returning int 
print_tokens.c:136: Warning: Return statement without a value in function returning int 
print_tokens.c:139: Warning: Return statement without a value in function returning int 
print_tokens.c:191: Warning: Body of function get_token falls-through. Adding a return statement
print_tokens.c:419: Warning: Return statement without a value in function returning int 
print_tokens.c:439: Warning: Body of function constant falls-through. Adding a return statement
print_tokens.c:572: Warning: Return statement without a value in function returning int 
print_tokens.c:136: Warning: Return statement without a value in function returning int 
print_tokens.c:139: Warning: Return statement without a value in function returning int 
print_tokens.c:191: Warning: Body of function get_token falls-through. Adding a return statement
print_tokens.c:419: Warning: Return statement without a value in function returning int 
print_tokens.c:439: Warning: Body of function constant falls-through. Adding a return statement
print_tokens.c:572: Warning: Return statement without a value in function returning int 
print_tokens.c:136: Warning: Return statement without a value in function returning int 
print_tokens.c:139: Warning: Return statement without a value in function returning int 
print_tokens.c:191: Warning: Body of function get_token falls-through. Adding a return statement
print_tokens.c:419: Warning: Return statement without a value in function returning int 
print_tokens.c:439: Warning: Body of function constant falls-through. Adding a return statement
print_tokens.c:572: Warning: Return statement without a value in function returning int 
print_tokens.c:136: Warning: Return statement without a value in function returning int 
print_tokens.c:139: Warning: Return statement without a value in function returning int 
print_tokens.c:191: Warning: Body of function get_token falls-through. Adding a return statement
print_tokens.c:419: Warning: Return statement without a value in function returning int 
print_tokens.c:439: Warning: Body of function constant falls-through. Adding a return statement
print_tokens.c:572: Warning: Return statement without a value in function returning int 
print_tokens.c:136: Warning: Return statement without a value in function returning int 
print_tokens.c:139: Warning: Return statement without a value in function returning int 
print_tokens.c:191: Warning: Body of function get_token falls-through. Adding a return statement
print_tokens.c:419: Warning: Return statement without a value in function returning int 
print_tokens.c:439: Warning: Body of function constant falls-through. Adding a return statement
print_tokens.c:572: Warning: Return statement without a value in function returning int 
print_tokens.c:136: Warning: Return statement without a value in function returning int 
print_tokens.c:139: Warning: Return statement without a value in function returning int 
print_tokens.c:191: Warning: Body of function get_token falls-through. Adding a return statement
print_tokens.c:419: Warning: Return statement without a value in function returning int 
print_tokens.c:439: Warning: Body of function constant falls-through. Adding a return statement
print_tokens.c:572: Warning: Return statement without a value in function returning int 
print_tokens.c:136: Warning: Return statement without a value in function returning int 
print_tokens.c:139: Warning: Return statement without a value in function returning int 
print_tokens.c:191: Warning: Body of function get_token falls-through. Adding a return statement
print_tokens.c:419: Warning: Return statement without a value in function returning int 
print_tokens.c:439: Warning: Body of function constant falls-through. Adding a return statement
print_tokens.c:572: Warning: Return statement without a value in function returning int 
print_tokens.c:136: Warning: Return statement without a value in function returning int 
print_tokens.c:139: Warning: Return statement without a value in function returning int 
print_tokens.c:191: Warning: Body of function get_token falls-through. Adding a return statement
print_tokens.c:419: Warning: Return statement without a value in function returning int 
print_tokens.c:439: Warning: Body of function constant falls-through. Adding a return statement
print_tokens.c:572: Warning: Return statement without a value in function returning int 
print_tokens.c:136: Warning: Return statement without a value in function returning int 
print_tokens.c:139: Warning: Return statement without a value in function returning int 
print_tokens.c:191: Warning: Body of function get_token falls-through. Adding a return statement
print_tokens.c:419: Warning: Return statement without a value in function returning int 
print_tokens.c:439: Warning: Body of function constant falls-through. Adding a return statement
print_tokens.c:572: Warning: Return statement without a value in function returning int 
print_tokens.c:136: Warning: Return statement without a value in function returning int 
print_tokens.c:139: Warning: Return statement without a value in function returning int 
print_tokens.c:191: Warning: Body of function get_token falls-through. Adding a return statement
print_tokens.c:419: Warning: Return statement without a value in function returning int 
print_tokens.c:439: Warning: Body of function constant falls-through. Adding a return statement
print_tokens.c:572: Warning: Return statement without a value in function returning int 
print_tokens.c:136: Warning: Return statement without a value in function returning int 
print_tokens.c:139: Warning: Return statement without a value in function returning int 
print_tokens.c:191: Warning: Body of function get_token falls-through. Adding a return statement
print_tokens.c:419: Warning: Return statement without a value in function returning int 
print_tokens.c:439: Warning: Body of function constant falls-through. Adding a return statement
print_tokens.c:572: Warning: Return statement without a value in function returning int 
print_tokens.c:136: Warning: Return statement without a value in function returning int 
print_tokens.c:139: Warning: Return statement without a value in function returning int 
print_tokens.c:191: Warning: Body of function get_token falls-through. Adding a return statement
print_tokens.c:419: Warning: Return statement without a value in function returning int 
print_tokens.c:439: Warning: Body of function constant falls-through. Adding a return statement
print_tokens.c:572: Warning: Return statement without a value in function returning int 
print_tokens.c:136: Warning: Return statement without a value in function returning int 
print_tokens.c:139: Warning: Return statement without a value in function returning int 
print_tokens.c:191: Warning: Body of function get_token falls-through. Adding a return statement
print_tokens.c:419: Warning: Return statement without a value in function returning int 
print_tokens.c:439: Warning: Body of function constant falls-through. Adding a return statement
print_tokens.c:572: Warning: Return statement without a value in function returning int 
print_tokens.c:136: Warning: Return statement without a value in function returning int 
print_tokens.c:139: Warning: Return statement without a value in function returning int 
print_tokens.c:191: Warning: Body of function get_token falls-through. Adding a return statement
print_tokens.c:419: Warning: Return statement without a value in function returning int 
print_tokens.c:439: Warning: Body of function constant falls-through. Adding a return statement
print_tokens.c:572: Warning: Return statement without a value in function returning int 
print_tokens.c:136: Warning: Return statement without a value in function returning int 
print_tokens.c:139: Warning: Return statement without a value in function returning int 
print_tokens.c:191: Warning: Body of function get_token falls-through. Adding a return statement
print_tokens.c:419: Warning: Return statement without a value in function returning int 
print_tokens.c:439: Warning: Body of function constant falls-through. Adding a return statement
print_tokens.c:572: Warning: Return statement without a value in function returning int 
print_tokens.c:136: Warning: Return statement without a value in function returning int 
print_tokens.c:139: Warning: Return statement without a value in function returning int 
print_tokens.c:191: Warning: Body of function get_token falls-through. Adding a return statement
print_tokens.c:419: Warning: Return statement without a value in function returning int 
print_tokens.c:439: Warning: Body of function constant falls-through. Adding a return statement
print_tokens.c:572: Warning: Return statement without a value in function returning int 
print_tokens.c:136: Warning: Return statement without a value in function returning int 
print_tokens.c:139: Warning: Return statement without a value in function returning int 
print_tokens.c:191: Warning: Body of function get_token falls-through. Adding a return statement
print_tokens.c:419: Warning: Return statement without a value in function returning int 
print_tokens.c:439: Warning: Body of function constant falls-through. Adding a return statement
print_tokens.c:572: Warning: Return statement without a value in function returning int 
print_tokens.c:136: Warning: Return statement without a value in function returning int 
print_tokens.c:139: Warning: Return statement without a value in function returning int 
print_tokens.c:191: Warning: Body of function get_token falls-through. Adding a return statement
print_tokens.c:419: Warning: Return statement without a value in function returning int 
print_tokens.c:439: Warning: Body of function constant falls-through. Adding a return statement
print_tokens.c:572: Warning: Return statement without a value in function returning int 
print_tokens.c:136: Warning: Return statement without a value in function returning int 
print_tokens.c:139: Warning: Return statement without a value in function returning int 
print_tokens.c:191: Warning: Body of function get_token falls-through. Adding a return statement
print_tokens.c:419: Warning: Return statement without a value in function returning int 
print_tokens.c:439: Warning: Body of function constant falls-through. Adding a return statement
print_tokens.c:572: Warning: Return statement without a value in function returning int 
print_tokens.c:136: Warning: Return statement without a value in function returning int 
print_tokens.c:139: Warning: Return statement without a value in function returning int 
print_tokens.c:191: Warning: Body of function get_token falls-through. Adding a return statement
print_tokens.c:419: Warning: Return statement without a value in function returning int 
print_tokens.c:439: Warning: Body of function constant falls-through. Adding a return statement
print_tokens.c:572: Warning: Return statement without a value in function returning int 
print_tokens.c:136: Warning: Return statement without a value in function returning int 
print_tokens.c:139: Warning: Return statement without a value in function returning int 
print_tokens.c:191: Warning: Body of function get_token falls-through. Adding a return statement
print_tokens.c:419: Warning: Return statement without a value in function returning int 
print_tokens.c:439: Warning: Body of function constant falls-through. Adding a return statement
print_tokens.c:572: Warning: Return statement without a value in function returning int 
print_tokens.c:136: Warning: Return statement without a value in function returning int 
print_tokens.c:139: Warning: Return statement without a value in function returning int 
print_tokens.c:191: Warning: Body of function get_token falls-through. Adding a return statement
print_tokens.c:419: Warning: Return statement without a value in function returning int 
print_tokens.c:439: Warning: Body of function constant falls-through. Adding a return statement
print_tokens.c:572: Warning: Return statement without a value in function returning int 
print_tokens.c:136: Warning: Return statement without a value in function returning int 
print_tokens.c:139: Warning: Return statement without a value in function returning int 
print_tokens.c:191: Warning: Body of function get_token falls-through. Adding a return statement
print_tokens.c:419: Warning: Return statement without a value in function returning int 
print_tokens.c:439: Warning: Body of function constant falls-through. Adding a return statement
print_tokens.c:572: Warning: Return statement without a value in function returning int 
print_tokens.c:136: Warning: Return statement without a value in function returning int 
print_tokens.c:139: Warning: Return statement without a value in function returning int 
print_tokens.c:191: Warning: Body of function get_token falls-through. Adding a return statement
print_tokens.c:419: Warning: Return statement without a value in function returning int 
print_tokens.c:439: Warning: Body of function constant falls-through. Adding a return statement
print_tokens.c:572: Warning: Return statement without a value in function returning int 
print_tokens.c:136: Warning: Return statement without a value in function returning int 
print_tokens.c:139: Warning: Return statement without a value in function returning int 
print_tokens.c:191: Warning: Body of function get_token falls-through. Adding a return statement
print_tokens.c:419: Warning: Return statement without a value in function returning int 
print_tokens.c:439: Warning: Body of function constant falls-through. Adding a return statement
print_tokens.c:572: Warning: Return statement without a value in function returning int 
print_tokens.c:136: Warning: Return statement without a value in function returning int 
print_tokens.c:139: Warning: Return statement without a value in function returning int 
print_tokens.c:191: Warning: Body of function get_token falls-through. Adding a return statement
print_tokens.c:419: Warning: Return statement without a value in function returning int 
print_tokens.c:439: Warning: Body of function constant falls-through. Adding a return statement
print_tokens.c:572: Warning: Return statement without a value in function returning int 
print_tokens.c:136: Warning: Return statement without a value in function returning int 
print_tokens.c:139: Warning: Return statement without a value in function returning int 
print_tokens.c:191: Warning: Body of function get_token falls-through. Adding a return statement
print_tokens.c:419: Warning: Return statement without a value in function returning int 
print_tokens.c:439: Warning: Body of function constant falls-through. Adding a return statement
print_tokens.c:572: Warning: Return statement without a value in function returning int 
print_tokens.c:136: Warning: Return statement without a value in function returning int 
print_tokens.c:139: Warning: Return statement without a value in function returning int 
print_tokens.c:191: Warning: Body of function get_token falls-through. Adding a return statement
print_tokens.c:419: Warning: Return statement without a value in function returning int 
print_tokens.c:439: Warning: Body of function constant falls-through. Adding a return statement
print_tokens.c:572: Warning: Return statement without a value in function returning int 
print_tokens.c:136: Warning: Return statement without a value in function returning int 
print_tokens.c:139: Warning: Return statement without a value in function returning int 
print_tokens.c:191: Warning: Body of function get_token falls-through. Adding a return statement
print_tokens.c:419: Warning: Return statement without a value in function returning int 
print_tokens.c:439: Warning: Body of function constant falls-through. Adding a return statement
print_tokens.c:572: Warning: Return statement without a value in function returning int 
print_tokens.c:136: Warning: Return statement without a value in function returning int 
print_tokens.c:139: Warning: Return statement without a value in function returning int 
print_tokens.c:191: Warning: Body of function get_token falls-through. Adding a return statement
print_tokens.c:419: Warning: Return statement without a value in function returning int 
print_tokens.c:439: Warning: Body of function constant falls-through. Adding a return statement
print_tokens.c:572: Warning: Return statement without a value in function returning int 
print_tokens.c:136: Warning: Return statement without a value in function returning int 
print_tokens.c:139: Warning: Return statement without a value in function returning int 
print_tokens.c:191: Warning: Body of function get_token falls-through. Adding a return statement
print_tokens.c:419: Warning: Return statement without a value in function returning int 
print_tokens.c:439: Warning: Body of function constant falls-through. Adding a return statement
print_tokens.c:572: Warning: Return statement without a value in function returning int 
print_tokens.c:136: Warning: Return statement without a value in function returning int 
print_tokens.c:139: Warning: Return statement without a value in function returning int 
print_tokens.c:191: Warning: Body of function get_token falls-through. Adding a return statement
print_tokens.c:419: Warning: Return statement without a value in function returning int 
print_tokens.c:439: Warning: Body of function constant falls-through. Adding a return statement
print_tokens.c:572: Warning: Return statement without a value in function returning int 
print_tokens.c:136: Warning: Return statement without a value in function returning int 
print_tokens.c:139: Warning: Return statement without a value in function returning int 
print_tokens.c:191: Warning: Body of function get_token falls-through. Adding a return statement
print_tokens.c:419: Warning: Return statement without a value in function returning int 
print_tokens.c:439: Warning: Body of function constant falls-through. Adding a return statement
print_tokens.c:572: Warning: Return statement without a value in function returning int 
print_tokens.c:136: Warning: Return statement without a value in function returning int 
print_tokens.c:139: Warning: Return statement without a value in function returning int 
print_tokens.c:191: Warning: Body of function get_token falls-through. Adding a return statement
print_tokens.c:419: Warning: Return statement without a value in function returning int 
print_tokens.c:439: Warning: Body of function constant falls-through. Adding a return statement
print_tokens.c:572: Warning: Return statement without a value in function returning int 
print_tokens.c:136: Warning: Return statement without a value in function returning int 
print_tokens.c:139: Warning: Return statement without a value in function returning int 
print_tokens.c:191: Warning: Body of function get_token falls-through. Adding a return statement
print_tokens.c:419: Warning: Return statement without a value in function returning int 
print_tokens.c:439: Warning: Body of function constant falls-through. Adding a return statement
print_tokens.c:572: Warning: Return statement without a value in function returning int 
print_tokens.c:136: Warning: Return statement without a value in function returning int 
print_tokens.c:139: Warning: Return statement without a value in function returning int 
print_tokens.c:191: Warning: Body of function get_token falls-through. Adding a return statement
print_tokens.c:419: Warning: Return statement without a value in function returning int 
print_tokens.c:439: Warning: Body of function constant falls-through. Adding a return statement
print_tokens.c:572: Warning: Return statement without a value in function returning int 
