Unable to find image 'christimperley/genprog:latest' locally
latest: Pulling from christimperley/genprog
81a1823ac769: Pulling fs layer
8fb2d15ba095: Pulling fs layer
8c8e28b1b596: Pulling fs layer
6cca44c54386: Pulling fs layer
eacfc5a69871: Pulling fs layer
f0e2cda89042: Pulling fs layer
431594b2f2c7: Pulling fs layer
238fcca2225c: Pulling fs layer
6cca44c54386: Waiting
eacfc5a69871: Waiting
f0e2cda89042: Waiting
431594b2f2c7: Waiting
238fcca2225c: Waiting
8fb2d15ba095: Verifying Checksum
8fb2d15ba095: Download complete
8c8e28b1b596: Verifying Checksum
8c8e28b1b596: Download complete
eacfc5a69871: Download complete
6cca44c54386: Verifying Checksum
6cca44c54386: Download complete
431594b2f2c7: Download complete
238fcca2225c: Download complete
81a1823ac769: Verifying Checksum
81a1823ac769: Download complete
f0e2cda89042: Verifying Checksum
f0e2cda89042: Download complete
81a1823ac769: Pull complete
8fb2d15ba095: Pull complete
8c8e28b1b596: Pull complete
6cca44c54386: Pull complete
eacfc5a69871: Pull complete
f0e2cda89042: Pull complete
431594b2f2c7: Pull complete
238fcca2225c: Pull complete
Digest: sha256:cddc220ac9630c35433e414c203c5057e89cd53dd02569329a2cd5dbb2a352ba
Status: Downloaded newer image for christimperley/genprog:latest
Unable to find image 'christimperley/repairbox:siemens-schedule-three' locally
siemens-schedule-three: Pulling from christimperley/repairbox
8f229c550c2e: Pulling fs layer
8e1fb71e8df6: Pulling fs layer
f75a34586856: Pulling fs layer
8744e322b832: Pulling fs layer
d5165bfce78f: Pulling fs layer
5f40aa49109c: Pulling fs layer
9787cc326297: Pulling fs layer
e34f25766503: Pulling fs layer
625ad78bb4d1: Pulling fs layer
d5165bfce78f: Waiting
5f40aa49109c: Waiting
e34f25766503: Waiting
9787cc326297: Waiting
625ad78bb4d1: Waiting
8744e322b832: Waiting
db7a024fafab: Pulling fs layer
e6236f7dfb5d: Pulling fs layer
16b58a4a80bf: Pulling fs layer
b6ee17c1c165: Pulling fs layer
cf5798b7fcda: Pulling fs layer
9abae4c95999: Pulling fs layer
63d4afdca50f: Pulling fs layer
5a1577103456: Pulling fs layer
84a6354e7437: Pulling fs layer
041700f246cc: Pulling fs layer
b81062395bdf: Pulling fs layer
06698aaa9e24: Pulling fs layer
29b11e26e30e: Pulling fs layer
317162f25982: Pulling fs layer
c635314de7e7: Pulling fs layer
2bccd2b18dd6: Pulling fs layer
7ec75834a779: Pulling fs layer
b056098b09e6: Pulling fs layer
3ed9c814aa9b: Pulling fs layer
2bb3a72f9f37: Pulling fs layer
3d776d66fce5: Pulling fs layer
4fa8f6560c12: Pulling fs layer
84a6354e7437: Waiting
041700f246cc: Waiting
b81062395bdf: Waiting
db7a024fafab: Waiting
e6236f7dfb5d: Waiting
06698aaa9e24: Waiting
16b58a4a80bf: Waiting
29b11e26e30e: Waiting
b6ee17c1c165: Waiting
317162f25982: Waiting
c635314de7e7: Waiting
cf5798b7fcda: Waiting
2bccd2b18dd6: Waiting
9abae4c95999: Waiting
63d4afdca50f: Waiting
7ec75834a779: Waiting
b056098b09e6: Waiting
5a1577103456: Waiting
3ed9c814aa9b: Waiting
2bb3a72f9f37: Waiting
3d776d66fce5: Waiting
4fa8f6560c12: Waiting
8e1fb71e8df6: Verifying Checksum
8e1fb71e8df6: Download complete
f75a34586856: Verifying Checksum
f75a34586856: Download complete
8744e322b832: Verifying Checksum
8744e322b832: Download complete
d5165bfce78f: Verifying Checksum
d5165bfce78f: Download complete
5f40aa49109c: Verifying Checksum
5f40aa49109c: Download complete
9787cc326297: Verifying Checksum
9787cc326297: Download complete
625ad78bb4d1: Verifying Checksum
625ad78bb4d1: Download complete
db7a024fafab: Download complete
e6236f7dfb5d: Verifying Checksum
e6236f7dfb5d: Download complete
16b58a4a80bf: Verifying Checksum
16b58a4a80bf: Download complete
b6ee17c1c165: Verifying Checksum
b6ee17c1c165: Download complete
cf5798b7fcda: Verifying Checksum
cf5798b7fcda: Download complete
9abae4c95999: Verifying Checksum
9abae4c95999: Download complete
63d4afdca50f: Verifying Checksum
63d4afdca50f: Download complete
8f229c550c2e: Verifying Checksum
8f229c550c2e: Download complete
5a1577103456: Verifying Checksum
5a1577103456: Download complete
84a6354e7437: Verifying Checksum
84a6354e7437: Download complete
041700f246cc: Verifying Checksum
041700f246cc: Download complete
b81062395bdf: Verifying Checksum
b81062395bdf: Download complete
29b11e26e30e: Verifying Checksum
29b11e26e30e: Download complete
06698aaa9e24: Verifying Checksum
06698aaa9e24: Download complete
317162f25982: Verifying Checksum
317162f25982: Download complete
c635314de7e7: Verifying Checksum
c635314de7e7: Download complete
e34f25766503: Verifying Checksum
e34f25766503: Download complete
2bccd2b18dd6: Verifying Checksum
2bccd2b18dd6: Download complete
7ec75834a779: Verifying Checksum
7ec75834a779: Download complete
b056098b09e6: Verifying Checksum
b056098b09e6: Download complete
3ed9c814aa9b: Verifying Checksum
3ed9c814aa9b: Download complete
4fa8f6560c12: Verifying Checksum
4fa8f6560c12: Download complete
2bb3a72f9f37: Verifying Checksum
2bb3a72f9f37: Download complete
8f229c550c2e: Pull complete
8e1fb71e8df6: Pull complete
f75a34586856: Pull complete
8744e322b832: Pull complete
d5165bfce78f: Pull complete
5f40aa49109c: Pull complete
9787cc326297: Pull complete
e34f25766503: Pull complete
625ad78bb4d1: Pull complete
db7a024fafab: Pull complete
e6236f7dfb5d: Pull complete
16b58a4a80bf: Pull complete
b6ee17c1c165: Pull complete
cf5798b7fcda: Pull complete
9abae4c95999: Pull complete
63d4afdca50f: Pull complete
5a1577103456: Pull complete
84a6354e7437: Pull complete
041700f246cc: Pull complete
b81062395bdf: Pull complete
06698aaa9e24: Pull complete
29b11e26e30e: Pull complete
317162f25982: Pull complete
c635314de7e7: Pull complete
2bccd2b18dd6: Pull complete
7ec75834a779: Pull complete
b056098b09e6: Pull complete
3ed9c814aa9b: Pull complete
2bb3a72f9f37: Pull complete
3d776d66fce5: Pull complete
4fa8f6560c12: Pull complete
Digest: sha256:566f04332ce7096d2247556c65c5f23e7b6fa2a85e69a6636f90736b743cb64a
Status: Downloaded newer image for christimperley/repairbox:siemens-schedule-three
schedule.c:183: Warning: Return statement without a value in function returning int 
schedule.c:179: Warning: Body of function schedule falls-through. Adding a return statement
schedule.c:289: Warning: Return statement without a value in function returning int 
schedule.c:322: Warning: Return statement without a value in function returning int 
schedule.c:332: Warning: Return statement without a value in function returning int 
schedule.c:297: Warning: Body of function main falls-through. Adding a return statement
schedule.c:183: Warning: Return statement without a value in function returning int 
schedule.c:179: Warning: Body of function schedule falls-through. Adding a return statement
schedule.c:289: Warning: Return statement without a value in function returning int 
schedule.c:322: Warning: Return statement without a value in function returning int 
schedule.c:332: Warning: Return statement without a value in function returning int 
schedule.c:297: Warning: Body of function main falls-through. Adding a return statement
schedule.c:183: Warning: Return statement without a value in function returning int 
schedule.c:179: Warning: Body of function schedule falls-through. Adding a return statement
schedule.c:289: Warning: Return statement without a value in function returning int 
schedule.c:322: Warning: Return statement without a value in function returning int 
schedule.c:332: Warning: Return statement without a value in function returning int 
schedule.c:297: Warning: Body of function main falls-through. Adding a return statement
schedule.c:183: Warning: Return statement without a value in function returning int 
schedule.c:179: Warning: Body of function schedule falls-through. Adding a return statement
schedule.c:289: Warning: Return statement without a value in function returning int 
schedule.c:322: Warning: Return statement without a value in function returning int 
schedule.c:332: Warning: Return statement without a value in function returning int 
schedule.c:297: Warning: Body of function main falls-through. Adding a return statement
schedule.c:183: Warning: Return statement without a value in function returning int 
schedule.c:179: Warning: Body of function schedule falls-through. Adding a return statement
schedule.c:289: Warning: Return statement without a value in function returning int 
schedule.c:322: Warning: Return statement without a value in function returning int 
schedule.c:332: Warning: Return statement without a value in function returning int 
schedule.c:297: Warning: Body of function main falls-through. Adding a return statement
schedule.c:183: Warning: Return statement without a value in function returning int 
schedule.c:179: Warning: Body of function schedule falls-through. Adding a return statement
schedule.c:289: Warning: Return statement without a value in function returning int 
schedule.c:322: Warning: Return statement without a value in function returning int 
schedule.c:332: Warning: Return statement without a value in function returning int 
schedule.c:297: Warning: Body of function main falls-through. Adding a return statement
schedule.c:183: Warning: Return statement without a value in function returning int 
schedule.c:179: Warning: Body of function schedule falls-through. Adding a return statement
schedule.c:289: Warning: Return statement without a value in function returning int 
schedule.c:322: Warning: Return statement without a value in function returning int 
schedule.c:332: Warning: Return statement without a value in function returning int 
schedule.c:297: Warning: Body of function main falls-through. Adding a return statement
schedule.c:183: Warning: Return statement without a value in function returning int 
schedule.c:179: Warning: Body of function schedule falls-through. Adding a return statement
schedule.c:289: Warning: Return statement without a value in function returning int 
schedule.c:322: Warning: Return statement without a value in function returning int 
schedule.c:332: Warning: Return statement without a value in function returning int 
schedule.c:297: Warning: Body of function main falls-through. Adding a return statement
schedule.c:183: Warning: Return statement without a value in function returning int 
schedule.c:179: Warning: Body of function schedule falls-through. Adding a return statement
schedule.c:289: Warning: Return statement without a value in function returning int 
schedule.c:322: Warning: Return statement without a value in function returning int 
schedule.c:332: Warning: Return statement without a value in function returning int 
schedule.c:297: Warning: Body of function main falls-through. Adding a return statement
schedule.c:183: Warning: Return statement without a value in function returning int 
schedule.c:179: Warning: Body of function schedule falls-through. Adding a return statement
schedule.c:289: Warning: Return statement without a value in function returning int 
schedule.c:322: Warning: Return statement without a value in function returning int 
schedule.c:332: Warning: Return statement without a value in function returning int 
schedule.c:297: Warning: Body of function main falls-through. Adding a return statement
schedule.c:183: Warning: Return statement without a value in function returning int 
schedule.c:179: Warning: Body of function schedule falls-through. Adding a return statement
schedule.c:289: Warning: Return statement without a value in function returning int 
schedule.c:322: Warning: Return statement without a value in function returning int 
schedule.c:332: Warning: Return statement without a value in function returning int 
schedule.c:297: Warning: Body of function main falls-through. Adding a return statement
schedule.c:183: Warning: Return statement without a value in function returning int 
schedule.c:179: Warning: Body of function schedule falls-through. Adding a return statement
schedule.c:289: Warning: Return statement without a value in function returning int 
schedule.c:322: Warning: Return statement without a value in function returning int 
schedule.c:332: Warning: Return statement without a value in function returning int 
schedule.c:297: Warning: Body of function main falls-through. Adding a return statement
schedule.c:183: Warning: Return statement without a value in function returning int 
schedule.c:179: Warning: Body of function schedule falls-through. Adding a return statement
schedule.c:289: Warning: Return statement without a value in function returning int 
schedule.c:322: Warning: Return statement without a value in function returning int 
schedule.c:332: Warning: Return statement without a value in function returning int 
schedule.c:297: Warning: Body of function main falls-through. Adding a return statement
schedule.c:183: Warning: Return statement without a value in function returning int 
schedule.c:179: Warning: Body of function schedule falls-through. Adding a return statement
schedule.c:289: Warning: Return statement without a value in function returning int 
schedule.c:322: Warning: Return statement without a value in function returning int 
schedule.c:332: Warning: Return statement without a value in function returning int 
schedule.c:297: Warning: Body of function main falls-through. Adding a return statement
schedule.c:183: Warning: Return statement without a value in function returning int 
schedule.c:179: Warning: Body of function schedule falls-through. Adding a return statement
schedule.c:289: Warning: Return statement without a value in function returning int 
schedule.c:322: Warning: Return statement without a value in function returning int 
schedule.c:332: Warning: Return statement without a value in function returning int 
schedule.c:297: Warning: Body of function main falls-through. Adding a return statement
schedule.c:183: Warning: Return statement without a value in function returning int 
schedule.c:179: Warning: Body of function schedule falls-through. Adding a return statement
schedule.c:289: Warning: Return statement without a value in function returning int 
schedule.c:322: Warning: Return statement without a value in function returning int 
schedule.c:332: Warning: Return statement without a value in function returning int 
schedule.c:297: Warning: Body of function main falls-through. Adding a return statement
schedule.c:183: Warning: Return statement without a value in function returning int 
schedule.c:179: Warning: Body of function schedule falls-through. Adding a return statement
schedule.c:289: Warning: Return statement without a value in function returning int 
schedule.c:322: Warning: Return statement without a value in function returning int 
schedule.c:332: Warning: Return statement without a value in function returning int 
schedule.c:297: Warning: Body of function main falls-through. Adding a return statement
schedule.c:183: Warning: Return statement without a value in function returning int 
schedule.c:179: Warning: Body of function schedule falls-through. Adding a return statement
schedule.c:289: Warning: Return statement without a value in function returning int 
schedule.c:322: Warning: Return statement without a value in function returning int 
schedule.c:332: Warning: Return statement without a value in function returning int 
schedule.c:297: Warning: Body of function main falls-through. Adding a return statement
schedule.c:183: Warning: Return statement without a value in function returning int 
schedule.c:179: Warning: Body of function schedule falls-through. Adding a return statement
schedule.c:289: Warning: Return statement without a value in function returning int 
schedule.c:322: Warning: Return statement without a value in function returning int 
schedule.c:332: Warning: Return statement without a value in function returning int 
schedule.c:297: Warning: Body of function main falls-through. Adding a return statement
schedule.c:183: Warning: Return statement without a value in function returning int 
schedule.c:179: Warning: Body of function schedule falls-through. Adding a return statement
schedule.c:289: Warning: Return statement without a value in function returning int 
schedule.c:322: Warning: Return statement without a value in function returning int 
schedule.c:332: Warning: Return statement without a value in function returning int 
schedule.c:297: Warning: Body of function main falls-through. Adding a return statement
schedule.c:183: Warning: Return statement without a value in function returning int 
schedule.c:179: Warning: Body of function schedule falls-through. Adding a return statement
schedule.c:289: Warning: Return statement without a value in function returning int 
schedule.c:322: Warning: Return statement without a value in function returning int 
schedule.c:332: Warning: Return statement without a value in function returning int 
schedule.c:297: Warning: Body of function main falls-through. Adding a return statement
schedule.c:183: Warning: Return statement without a value in function returning int 
schedule.c:179: Warning: Body of function schedule falls-through. Adding a return statement
schedule.c:289: Warning: Return statement without a value in function returning int 
schedule.c:322: Warning: Return statement without a value in function returning int 
schedule.c:332: Warning: Return statement without a value in function returning int 
schedule.c:297: Warning: Body of function main falls-through. Adding a return statement
schedule.c:183: Warning: Return statement without a value in function returning int 
schedule.c:179: Warning: Body of function schedule falls-through. Adding a return statement
schedule.c:289: Warning: Return statement without a value in function returning int 
schedule.c:322: Warning: Return statement without a value in function returning int 
schedule.c:332: Warning: Return statement without a value in function returning int 
schedule.c:297: Warning: Body of function main falls-through. Adding a return statement
schedule.c:183: Warning: Return statement without a value in function returning int 
schedule.c:179: Warning: Body of function schedule falls-through. Adding a return statement
schedule.c:289: Warning: Return statement without a value in function returning int 
schedule.c:322: Warning: Return statement without a value in function returning int 
schedule.c:332: Warning: Return statement without a value in function returning int 
schedule.c:297: Warning: Body of function main falls-through. Adding a return statement
schedule.c:183: Warning: Return statement without a value in function returning int 
schedule.c:179: Warning: Body of function schedule falls-through. Adding a return statement
schedule.c:289: Warning: Return statement without a value in function returning int 
schedule.c:322: Warning: Return statement without a value in function returning int 
schedule.c:332: Warning: Return statement without a value in function returning int 
schedule.c:297: Warning: Body of function main falls-through. Adding a return statement
schedule.c:183: Warning: Return statement without a value in function returning int 
schedule.c:179: Warning: Body of function schedule falls-through. Adding a return statement
schedule.c:289: Warning: Return statement without a value in function returning int 
schedule.c:322: Warning: Return statement without a value in function returning int 
schedule.c:332: Warning: Return statement without a value in function returning int 
schedule.c:297: Warning: Body of function main falls-through. Adding a return statement
schedule.c:183: Warning: Return statement without a value in function returning int 
schedule.c:179: Warning: Body of function schedule falls-through. Adding a return statement
schedule.c:289: Warning: Return statement without a value in function returning int 
schedule.c:322: Warning: Return statement without a value in function returning int 
schedule.c:332: Warning: Return statement without a value in function returning int 
schedule.c:297: Warning: Body of function main falls-through. Adding a return statement
schedule.c:183: Warning: Return statement without a value in function returning int 
schedule.c:179: Warning: Body of function schedule falls-through. Adding a return statement
schedule.c:289: Warning: Return statement without a value in function returning int 
schedule.c:322: Warning: Return statement without a value in function returning int 
schedule.c:332: Warning: Return statement without a value in function returning int 
schedule.c:297: Warning: Body of function main falls-through. Adding a return statement
schedule.c:183: Warning: Return statement without a value in function returning int 
schedule.c:179: Warning: Body of function schedule falls-through. Adding a return statement
schedule.c:289: Warning: Return statement without a value in function returning int 
schedule.c:322: Warning: Return statement without a value in function returning int 
schedule.c:332: Warning: Return statement without a value in function returning int 
schedule.c:297: Warning: Body of function main falls-through. Adding a return statement
schedule.c:183: Warning: Return statement without a value in function returning int 
schedule.c:179: Warning: Body of function schedule falls-through. Adding a return statement
schedule.c:289: Warning: Return statement without a value in function returning int 
schedule.c:322: Warning: Return statement without a value in function returning int 
schedule.c:332: Warning: Return statement without a value in function returning int 
schedule.c:297: Warning: Body of function main falls-through. Adding a return statement
schedule.c:183: Warning: Return statement without a value in function returning int 
schedule.c:179: Warning: Body of function schedule falls-through. Adding a return statement
schedule.c:289: Warning: Return statement without a value in function returning int 
schedule.c:322: Warning: Return statement without a value in function returning int 
schedule.c:332: Warning: Return statement without a value in function returning int 
schedule.c:297: Warning: Body of function main falls-through. Adding a return statement
schedule.c:183: Warning: Return statement without a value in function returning int 
schedule.c:179: Warning: Body of function schedule falls-through. Adding a return statement
schedule.c:289: Warning: Return statement without a value in function returning int 
schedule.c:322: Warning: Return statement without a value in function returning int 
schedule.c:332: Warning: Return statement without a value in function returning int 
schedule.c:297: Warning: Body of function main falls-through. Adding a return statement
schedule.c:183: Warning: Return statement without a value in function returning int 
schedule.c:179: Warning: Body of function schedule falls-through. Adding a return statement
schedule.c:289: Warning: Return statement without a value in function returning int 
schedule.c:322: Warning: Return statement without a value in function returning int 
schedule.c:332: Warning: Return statement without a value in function returning int 
schedule.c:297: Warning: Body of function main falls-through. Adding a return statement
schedule.c:183: Warning: Return statement without a value in function returning int 
schedule.c:179: Warning: Body of function schedule falls-through. Adding a return statement
schedule.c:289: Warning: Return statement without a value in function returning int 
schedule.c:322: Warning: Return statement without a value in function returning int 
schedule.c:332: Warning: Return statement without a value in function returning int 
schedule.c:297: Warning: Body of function main falls-through. Adding a return statement
schedule.c:183: Warning: Return statement without a value in function returning int 
schedule.c:179: Warning: Body of function schedule falls-through. Adding a return statement
schedule.c:289: Warning: Return statement without a value in function returning int 
schedule.c:322: Warning: Return statement without a value in function returning int 
schedule.c:332: Warning: Return statement without a value in function returning int 
schedule.c:297: Warning: Body of function main falls-through. Adding a return statement
schedule.c:183: Warning: Return statement without a value in function returning int 
schedule.c:179: Warning: Body of function schedule falls-through. Adding a return statement
schedule.c:289: Warning: Return statement without a value in function returning int 
schedule.c:322: Warning: Return statement without a value in function returning int 
schedule.c:332: Warning: Return statement without a value in function returning int 
schedule.c:297: Warning: Body of function main falls-through. Adding a return statement
schedule.c:183: Warning: Return statement without a value in function returning int 
schedule.c:179: Warning: Body of function schedule falls-through. Adding a return statement
schedule.c:289: Warning: Return statement without a value in function returning int 
schedule.c:322: Warning: Return statement without a value in function returning int 
schedule.c:332: Warning: Return statement without a value in function returning int 
schedule.c:297: Warning: Body of function main falls-through. Adding a return statement
schedule.c:183: Warning: Return statement without a value in function returning int 
schedule.c:179: Warning: Body of function schedule falls-through. Adding a return statement
schedule.c:289: Warning: Return statement without a value in function returning int 
schedule.c:322: Warning: Return statement without a value in function returning int 
schedule.c:332: Warning: Return statement without a value in function returning int 
schedule.c:297: Warning: Body of function main falls-through. Adding a return statement
schedule.c:183: Warning: Return statement without a value in function returning int 
schedule.c:179: Warning: Body of function schedule falls-through. Adding a return statement
schedule.c:289: Warning: Return statement without a value in function returning int 
schedule.c:322: Warning: Return statement without a value in function returning int 
schedule.c:332: Warning: Return statement without a value in function returning int 
schedule.c:297: Warning: Body of function main falls-through. Adding a return statement
schedule.c:183: Warning: Return statement without a value in function returning int 
schedule.c:179: Warning: Body of function schedule falls-through. Adding a return statement
schedule.c:289: Warning: Return statement without a value in function returning int 
schedule.c:322: Warning: Return statement without a value in function returning int 
schedule.c:332: Warning: Return statement without a value in function returning int 
schedule.c:297: Warning: Body of function main falls-through. Adding a return statement
schedule.c:183: Warning: Return statement without a value in function returning int 
schedule.c:179: Warning: Body of function schedule falls-through. Adding a return statement
schedule.c:289: Warning: Return statement without a value in function returning int 
schedule.c:322: Warning: Return statement without a value in function returning int 
schedule.c:332: Warning: Return statement without a value in function returning int 
schedule.c:297: Warning: Body of function main falls-through. Adding a return statement
schedule.c:183: Warning: Return statement without a value in function returning int 
schedule.c:179: Warning: Body of function schedule falls-through. Adding a return statement
schedule.c:289: Warning: Return statement without a value in function returning int 
schedule.c:322: Warning: Return statement without a value in function returning int 
schedule.c:332: Warning: Return statement without a value in function returning int 
schedule.c:297: Warning: Body of function main falls-through. Adding a return statement
schedule.c:183: Warning: Return statement without a value in function returning int 
schedule.c:179: Warning: Body of function schedule falls-through. Adding a return statement
schedule.c:289: Warning: Return statement without a value in function returning int 
schedule.c:322: Warning: Return statement without a value in function returning int 
schedule.c:332: Warning: Return statement without a value in function returning int 
schedule.c:297: Warning: Body of function main falls-through. Adding a return statement
schedule.c:183: Warning: Return statement without a value in function returning int 
schedule.c:179: Warning: Body of function schedule falls-through. Adding a return statement
schedule.c:289: Warning: Return statement without a value in function returning int 
schedule.c:322: Warning: Return statement without a value in function returning int 
schedule.c:332: Warning: Return statement without a value in function returning int 
schedule.c:297: Warning: Body of function main falls-through. Adding a return statement
schedule.c:183: Warning: Return statement without a value in function returning int 
schedule.c:179: Warning: Body of function schedule falls-through. Adding a return statement
schedule.c:289: Warning: Return statement without a value in function returning int 
schedule.c:322: Warning: Return statement without a value in function returning int 
schedule.c:332: Warning: Return statement without a value in function returning int 
schedule.c:297: Warning: Body of function main falls-through. Adding a return statement
schedule.c:183: Warning: Return statement without a value in function returning int 
schedule.c:179: Warning: Body of function schedule falls-through. Adding a return statement
schedule.c:289: Warning: Return statement without a value in function returning int 
schedule.c:322: Warning: Return statement without a value in function returning int 
schedule.c:332: Warning: Return statement without a value in function returning int 
schedule.c:297: Warning: Body of function main falls-through. Adding a return statement
schedule.c:183: Warning: Return statement without a value in function returning int 
schedule.c:179: Warning: Body of function schedule falls-through. Adding a return statement
schedule.c:289: Warning: Return statement without a value in function returning int 
schedule.c:322: Warning: Return statement without a value in function returning int 
schedule.c:332: Warning: Return statement without a value in function returning int 
schedule.c:297: Warning: Body of function main falls-through. Adding a return statement
schedule.c:183: Warning: Return statement without a value in function returning int 
schedule.c:179: Warning: Body of function schedule falls-through. Adding a return statement
schedule.c:289: Warning: Return statement without a value in function returning int 
schedule.c:322: Warning: Return statement without a value in function returning int 
schedule.c:332: Warning: Return statement without a value in function returning int 
schedule.c:297: Warning: Body of function main falls-through. Adding a return statement
schedule.c:183: Warning: Return statement without a value in function returning int 
schedule.c:179: Warning: Body of function schedule falls-through. Adding a return statement
schedule.c:289: Warning: Return statement without a value in function returning int 
schedule.c:322: Warning: Return statement without a value in function returning int 
schedule.c:332: Warning: Return statement without a value in function returning int 
schedule.c:297: Warning: Body of function main falls-through. Adding a return statement
schedule.c:183: Warning: Return statement without a value in function returning int 
schedule.c:179: Warning: Body of function schedule falls-through. Adding a return statement
schedule.c:289: Warning: Return statement without a value in function returning int 
schedule.c:322: Warning: Return statement without a value in function returning int 
schedule.c:332: Warning: Return statement without a value in function returning int 
schedule.c:297: Warning: Body of function main falls-through. Adding a return statement
schedule.c:183: Warning: Return statement without a value in function returning int 
schedule.c:179: Warning: Body of function schedule falls-through. Adding a return statement
schedule.c:289: Warning: Return statement without a value in function returning int 
schedule.c:322: Warning: Return statement without a value in function returning int 
schedule.c:332: Warning: Return statement without a value in function returning int 
schedule.c:297: Warning: Body of function main falls-through. Adding a return statement
schedule.c:183: Warning: Return statement without a value in function returning int 
schedule.c:179: Warning: Body of function schedule falls-through. Adding a return statement
schedule.c:289: Warning: Return statement without a value in function returning int 
schedule.c:322: Warning: Return statement without a value in function returning int 
schedule.c:332: Warning: Return statement without a value in function returning int 
schedule.c:297: Warning: Body of function main falls-through. Adding a return statement
schedule.c:183: Warning: Return statement without a value in function returning int 
schedule.c:179: Warning: Body of function schedule falls-through. Adding a return statement
schedule.c:289: Warning: Return statement without a value in function returning int 
schedule.c:322: Warning: Return statement without a value in function returning int 
schedule.c:332: Warning: Return statement without a value in function returning int 
schedule.c:297: Warning: Body of function main falls-through. Adding a return statement
schedule.c:183: Warning: Return statement without a value in function returning int 
schedule.c:179: Warning: Body of function schedule falls-through. Adding a return statement
schedule.c:289: Warning: Return statement without a value in function returning int 
schedule.c:322: Warning: Return statement without a value in function returning int 
schedule.c:332: Warning: Return statement without a value in function returning int 
schedule.c:297: Warning: Body of function main falls-through. Adding a return statement
schedule.c:183: Warning: Return statement without a value in function returning int 
schedule.c:179: Warning: Body of function schedule falls-through. Adding a return statement
schedule.c:289: Warning: Return statement without a value in function returning int 
schedule.c:322: Warning: Return statement without a value in function returning int 
schedule.c:332: Warning: Return statement without a value in function returning int 
schedule.c:297: Warning: Body of function main falls-through. Adding a return statement
schedule.c:183: Warning: Return statement without a value in function returning int 
schedule.c:179: Warning: Body of function schedule falls-through. Adding a return statement
schedule.c:289: Warning: Return statement without a value in function returning int 
schedule.c:322: Warning: Return statement without a value in function returning int 
schedule.c:332: Warning: Return statement without a value in function returning int 
schedule.c:297: Warning: Body of function main falls-through. Adding a return statement
schedule.c:183: Warning: Return statement without a value in function returning int 
schedule.c:179: Warning: Body of function schedule falls-through. Adding a return statement
schedule.c:289: Warning: Return statement without a value in function returning int 
schedule.c:322: Warning: Return statement without a value in function returning int 
schedule.c:332: Warning: Return statement without a value in function returning int 
schedule.c:297: Warning: Body of function main falls-through. Adding a return statement
schedule.c:183: Warning: Return statement without a value in function returning int 
schedule.c:179: Warning: Body of function schedule falls-through. Adding a return statement
schedule.c:289: Warning: Return statement without a value in function returning int 
schedule.c:322: Warning: Return statement without a value in function returning int 
schedule.c:332: Warning: Return statement without a value in function returning int 
schedule.c:297: Warning: Body of function main falls-through. Adding a return statement
schedule.c:183: Warning: Return statement without a value in function returning int 
schedule.c:179: Warning: Body of function schedule falls-through. Adding a return statement
schedule.c:289: Warning: Return statement without a value in function returning int 
schedule.c:322: Warning: Return statement without a value in function returning int 
schedule.c:332: Warning: Return statement without a value in function returning int 
schedule.c:297: Warning: Body of function main falls-through. Adding a return statement
schedule.c:183: Warning: Return statement without a value in function returning int 
schedule.c:179: Warning: Body of function schedule falls-through. Adding a return statement
schedule.c:289: Warning: Return statement without a value in function returning int 
schedule.c:322: Warning: Return statement without a value in function returning int 
schedule.c:332: Warning: Return statement without a value in function returning int 
schedule.c:297: Warning: Body of function main falls-through. Adding a return statement
