{
  "algorithm": {
    "type": "random",
    "descriptor": "feasibility-random",
    "depth_limit": 1,
    "iterations": 2000,
    "mutation": {
      "type": "patch",
      "rate": 1.0
    }
  },
  "localisation": {
    "type": "genprog",
    "intersection": true
  }
}
