{
  "algorithm": {
    "type": "genetic",
    "descriptor": "restricted-step-cropping",
    "mutation": {
      "type": "restricted",
      "rate": 1.0
    },
    "crossover": {
      "type": "uniform",
      "rate": 1.0
    },
    "selection": {"type": "cropping"},
    "test_scheme": {
      "type": "sample",
      "size": 8
    },
    "fitness_scheme": {"type": "step"}
  }
}
