Bug,standard,double-tournament
siemens-replace-one,134.0,107.0
siemens-replace-two,0,0
siemens-replace-three,0,0
siemens-printtokens-one,12.5,12.5
siemens-printtokens-two,0,0
siemens-printtokens-three,0,0
siemens-printtokens2-one,8.0,8.0
siemens-printtokens2-two,0,0
siemens-printtokens2-three,0,0
siemens-schedule-one,30.5,30.0
siemens-schedule-two,0,0
siemens-schedule-three,0,0
siemens-totinfo-one,0,308.0
siemens-totinfo-two,0,0
siemens-totinfo-three,0,0
siemens-tcas-one,23.5,23.5
siemens-tcas-two,0,0
siemens-tcas-three,6.5,6.5
