Bug,standard,shadow
siemens-replace-one,135.75,78.0
siemens-replace-two,0,143.0
siemens-replace-three,0,0
siemens-printtokens-one,63.1666666667,43.1666666667
siemens-printtokens-two,0,0
siemens-printtokens-three,0,0
siemens-printtokens2-one,14.9,20.2
siemens-printtokens2-two,0,0
siemens-printtokens2-three,0,0
siemens-schedule-one,30.5,30.0
siemens-schedule-two,0,0
siemens-schedule-three,0,0
siemens-totinfo-one,0,0
siemens-totinfo-two,0,0
siemens-totinfo-three,0,0
siemens-tcas-one,52.4,32.6
siemens-tcas-two,0,73.0
siemens-tcas-three,8.4,8.2
