{
  "algorithm": {
    "type": "genetic",
    "descriptor": "double-tournament",
    "mutation": {
      "type": "patch",
      "rate": 1.0
    },
    "crossover": {
      "type": "one_point",
      "rate": 1.0
    },
    "selection": {
      "type": "double_tournament",
      "size": 2,
      "sp": 2.0
    },
    "test_scheme": {"type": "all"},
    "unique_visits": 400
  }
}
