{
  "time_limit": 5400,
  "cache_enabled": false,
  "algorithm": {
    "type": "genetic",
    "descriptor": "genetic",
    "mutation": {
      "type": "patch",
      "rate": 1.0
    },
    "crossover": {
      "type": "one_point",
      "rate": 1.0
    },
    "test_scheme": {"type": "all"}
  }
}
